{
  "project_info": {
    "project_number": "190526354352",
    "project_id": "sekost-3f194",
    "storage_bucket": "sekost-3f194.appspot.com"
  },
  "client": [
    {
      "client_info": {
        "mobilesdk_app_id": "1:190526354352:android:f57914b1f4cfa709425c75",
        "android_client_info": {
          "package_name": "com.example.aplikasi_sekost"
        }
      },
      "oauth_client": [
        {
          "client_id": "190526354352-4vl2t4ksisuoeof4i5r6i0est7psp0hu.apps.googleusercontent.com",
          "client_type": 3
        }
      ],
      "api_key": [
        {
          "current_key": "AIzaSyBaPXaMP2iOOIWzBrVkyLhKbT5PXaF1DS8"
        }
      ],
      "services": {
        "appinvite_service": {
          "other_platform_oauth_client": [
            {
              "client_id": "190526354352-4vl2t4ksisuoeof4i5r6i0est7psp0hu.apps.googleusercontent.com",
              "client_type": 3
            }
          ]
        }
      }
    }
  ],
  "configuration_version": "1"
}